^C:\USERS\ADMIN\SOURCE\REPOS\HW_POZDEEV_LESS13\HW_POZDEEV_LESS13\HELPERS.CPP
/c /ZI /JMC /nologo /W3 /WX- /diagnostics:column /sdl /Od /Oy- /D WIN32 /D _DEBUG /D _CONSOLE /D _UNICODE /D UNICODE /Gm- /EHsc /RTC1 /MDd /GS /fp:precise /permissive- /Zc:wchar_t /Zc:forScope /Zc:inline /Fo"DEBUG\\" /Fd"DEBUG\VC142.PDB" /Gd /TP /analyze- /FC C:\USERS\ADMIN\SOURCE\REPOS\HW_POZDEEV_LESS13\HW_POZDEEV_LESS13\HELPERS.CPP
^C:\USERS\ADMIN\SOURCE\REPOS\HW_POZDEEV_LESS13\HW_POZDEEV_LESS13\MAIN.CPP
/c /ZI /JMC /nologo /W3 /WX- /diagnostics:column /sdl /Od /Oy- /D WIN32 /D _DEBUG /D _CONSOLE /D _UNICODE /D UNICODE /Gm- /EHsc /RTC1 /MDd /GS /fp:precise /permissive- /Zc:wchar_t /Zc:forScope /Zc:inline /Fo"DEBUG\\" /Fd"DEBUG\VC142.PDB" /Gd /TP /analyze- /FC C:\USERS\ADMIN\SOURCE\REPOS\HW_POZDEEV_LESS13\HW_POZDEEV_LESS13\MAIN.CPP
