^C:\USERS\ADMIN\SOURCE\REPOS\HW_POZDEEV_LESS13\HW_POZDEEV_LESS13\DEBUG\HELPERS.OBJ|C:\USERS\ADMIN\SOURCE\REPOS\HW_POZDEEV_LESS13\HW_POZDEEV_LESS13\DEBUG\MAIN.OBJ
C:\USERS\ADMIN\SOURCE\REPOS\HW_POZDEEV_LESS13\DEBUG\HW_POZDEEV_LESS13.ILK
C:\USERS\ADMIN\SOURCE\REPOS\HW_POZDEEV_LESS13\DEBUG\HW_POZDEEV_LESS13.EXE
C:\USERS\ADMIN\SOURCE\REPOS\HW_POZDEEV_LESS13\DEBUG\HW_POZDEEV_LESS13.PDB
